<svg width="188" height="50" viewBox="0 0 188 50" fill="none" xmlns="http://www.w3.org/2000/svg">
<rect x="1.5" y="1.5" width="185" height="47" rx="5.5" stroke="#FE7325" stroke-width="3"/>
<path d="M56.6685 25.072C56.6685 28.012 58.7125 30.07 61.6105 30.07C63.9485 30.07 65.7125 28.768 66.2725 26.64H63.6405C63.2345 27.48 62.4925 27.9 61.5825 27.9C60.1125 27.9 59.1045 26.808 59.1045 25.072C59.1045 23.336 60.1125 22.244 61.5825 22.244C62.4925 22.244 63.2345 22.664 63.6405 23.504H66.2725C65.7125 21.376 63.9485 20.06 61.6105 20.06C58.7125 20.06 56.6685 22.132 56.6685 25.072ZM75.3825 26.094C75.3825 23.616 73.6185 22.076 71.3225 22.076C69.0405 22.076 67.2625 23.616 67.2625 26.094C67.2625 28.572 68.9985 30.112 71.2945 30.112C73.5905 30.112 75.3825 28.572 75.3825 26.094ZM69.6985 26.094C69.6985 24.764 70.4545 24.148 71.3225 24.148C72.1625 24.148 72.9465 24.764 72.9465 26.094C72.9465 27.41 72.1485 28.04 71.2945 28.04C70.4265 28.04 69.6985 27.41 69.6985 26.094ZM82.0426 30H84.4226V25.436C84.4226 23.336 83.2186 22.104 81.4126 22.104C80.3626 22.104 79.5226 22.566 79.0466 23.224V22.188H76.6526V30H79.0466V25.758C79.0466 24.694 79.6346 24.106 80.5446 24.106C81.4546 24.106 82.0426 24.694 82.0426 25.758V30ZM86.4642 27.284C86.4642 29.314 87.5982 30 89.2222 30H90.4402V27.97H89.5862C89.0542 27.97 88.8582 27.774 88.8582 27.312V24.176H90.4262V22.188H88.8582V20.284H86.4642V22.188H85.5122V24.176H86.4642V27.284ZM91.2977 26.08C91.2977 28.544 92.8237 30.112 94.7277 30.112C95.8897 30.112 96.7157 29.58 97.1497 28.894V30H99.5437V22.188H97.1497V23.294C96.7297 22.608 95.9037 22.076 94.7417 22.076C92.8237 22.076 91.2977 23.616 91.2977 26.08ZM97.1497 26.094C97.1497 27.34 96.3517 28.026 95.4417 28.026C94.5457 28.026 93.7337 27.326 93.7337 26.08C93.7337 24.834 94.5457 24.162 95.4417 24.162C96.3517 24.162 97.1497 24.848 97.1497 26.094ZM100.8 26.094C100.8 28.572 102.424 30.112 104.72 30.112C106.68 30.112 108.066 28.978 108.472 27.172H105.924C105.714 27.746 105.336 28.068 104.678 28.068C103.824 28.068 103.236 27.396 103.236 26.094C103.236 24.792 103.824 24.12 104.678 24.12C105.336 24.12 105.728 24.47 105.924 25.016H108.472C108.066 23.154 106.68 22.076 104.72 22.076C102.424 22.076 100.8 23.63 100.8 26.094ZM110.13 27.284C110.13 29.314 111.264 30 112.888 30H114.106V27.97H113.252C112.72 27.97 112.524 27.774 112.524 27.312V24.176H114.092V22.188H112.524V20.284H110.13V22.188H109.178V24.176H110.13V27.284ZM126.12 22.188H123.726V26.43C123.726 27.494 123.138 28.082 122.214 28.082C121.318 28.082 120.716 27.494 120.716 26.43V22.188H118.336V26.752C118.336 28.838 119.554 30.084 121.36 30.084C122.41 30.084 123.25 29.608 123.726 28.936V30H126.12V22.188ZM134.182 27.732C134.14 24.82 129.912 25.702 129.912 24.456C129.912 24.078 130.22 23.854 130.78 23.854C131.452 23.854 131.858 24.204 131.928 24.736H134.14C133.986 23.196 132.866 22.076 130.85 22.076C128.806 22.076 127.672 23.168 127.672 24.498C127.672 27.368 131.928 26.458 131.928 27.718C131.928 28.068 131.606 28.348 130.99 28.348C130.332 28.348 129.842 27.984 129.786 27.438H127.42C127.532 28.95 128.932 30.112 131.018 30.112C132.978 30.112 134.182 29.09 134.182 27.732Z" fill="#FE7325"/>
</svg>
