<svg width="66" height="66" viewBox="0 0 66 66" fill="none" xmlns="http://www.w3.org/2000/svg">
<circle cx="32.9998" cy="33" r="33" fill="#FFF7EA"/>
<path d="M37.02 37.0202L46.3331 46.3333" stroke="#FEAD25" stroke-width="4" stroke-linecap="round" stroke-linejoin="round"/>
<path d="M29.6665 39.6667C35.1893 39.6667 39.6665 35.1895 39.6665 29.6667C39.6665 24.1438 35.1893 19.6667 29.6665 19.6667C24.1436 19.6667 19.6665 24.1438 19.6665 29.6667C19.6665 35.1895 24.1436 39.6667 29.6665 39.6667Z" stroke="#FEAD25" stroke-width="4" stroke-linecap="round" stroke-linejoin="round"/>
</svg>
