<svg width="35" height="35" viewBox="0 0 35 35" fill="none" xmlns="http://www.w3.org/2000/svg">
<rect opacity="0.75" x="1" y="1" width="33" height="33" rx="6" stroke="white" stroke-width="2"/>
<g opacity="0.75">
<path d="M14.08 26C15.5587 26.0495 17.0323 25.8021 18.4138 25.2723C19.7952 24.7426 21.0564 23.9413 22.1229 22.9159C23.1894 21.8904 24.0395 20.6615 24.623 19.3019C25.2065 17.9423 25.5115 16.4795 25.52 15C26.1977 14.1615 26.7009 13.1959 27 12.16C27.0223 12.0782 27.0205 11.9917 26.9948 11.9108C26.9691 11.83 26.9206 11.7583 26.855 11.7044C26.7895 11.6505 26.7098 11.6167 26.6256 11.6071C26.5413 11.5974 26.456 11.6123 26.38 11.65C26.0255 11.8207 25.6264 11.8758 25.2389 11.8076C24.8514 11.7395 24.495 11.5514 24.22 11.27C23.869 10.8856 23.4443 10.5756 22.9713 10.3583C22.4982 10.141 21.9863 10.0208 21.466 10.005C20.9456 9.98913 20.4274 10.0779 19.942 10.266C19.4565 10.4541 19.0138 10.7377 18.64 11.1C18.1282 11.5957 17.7533 12.2153 17.5518 12.8987C17.3503 13.5821 17.329 14.306 17.49 15C14.14 15.2 11.84 13.61 10 11.43C9.94473 11.3674 9.87242 11.3223 9.79191 11.3001C9.7114 11.2779 9.62617 11.2797 9.54664 11.3051C9.4671 11.3306 9.39669 11.3786 9.34402 11.4434C9.29134 11.5082 9.25868 11.587 9.25001 11.67C8.89948 13.6145 9.15234 15.6196 9.97463 17.4161C10.7969 19.2126 12.1493 20.7145 13.85 21.72C12.7096 23.0279 11.1082 23.8447 9.38001 24C9.28742 24.0154 9.20195 24.0593 9.13556 24.1257C9.06917 24.192 9.02518 24.2774 9.00975 24.37C8.99433 24.4626 9.00823 24.5577 9.04951 24.6419C9.0908 24.7262 9.15741 24.7955 9.24001 24.84C10.7435 25.5914 12.3992 25.9882 14.08 26Z" fill="white"/>
</g>
</svg>
