<svg width="347" height="291" viewBox="0 0 347 291" fill="none" xmlns="http://www.w3.org/2000/svg">
<g filter="url(#filter0_d)">
<rect x="16" y="15" width="297" height="241" rx="12" fill="white"/>
</g>
<circle cx="79.5" cy="96.5" r="33.5" fill="#DCD9FE"/>
<path d="M91.0833 94.4167H68.9167V110.25H91.0833V94.4167Z" stroke="#5C54FF" stroke-width="3" stroke-linecap="round" stroke-linejoin="round"/>
<path d="M80 81.75C84.3723 81.75 87.9167 85.2944 87.9167 89.6667V94.4167H72.0833V89.6667C72.0833 85.2944 75.6277 81.75 80 81.75Z" stroke="#5C54FF" stroke-width="3" stroke-linecap="round" stroke-linejoin="round"/>
<path d="M80 103.917C80.8744 103.917 81.5833 103.208 81.5833 102.333C81.5833 101.459 80.8744 100.75 80 100.75C79.1255 100.75 78.4167 101.459 78.4167 102.333C78.4167 103.208 79.1255 103.917 80 103.917Z" stroke="#5C54FF" stroke-width="3" stroke-linecap="round" stroke-linejoin="round"/>
<defs>
<filter id="filter0_d" x="0" y="0" width="347" height="291" filterUnits="userSpaceOnUse" color-interpolation-filters="sRGB">
<feFlood flood-opacity="0" result="BackgroundImageFix"/>
<feColorMatrix in="SourceAlpha" type="matrix" values="0 0 0 0 0 0 0 0 0 0 0 0 0 0 0 0 0 0 127 0"/>
<feOffset dx="9" dy="10"/>
<feGaussianBlur stdDeviation="12.5"/>
<feColorMatrix type="matrix" values="0 0 0 0 0.142865 0 0 0 0 0.146792 0 0 0 0 0.1625 0 0 0 0.05 0"/>
<feBlend mode="normal" in2="BackgroundImageFix" result="effect1_dropShadow"/>
<feBlend mode="normal" in="SourceGraphic" in2="effect1_dropShadow" result="shape"/>
</filter>
</defs>
</svg>
